…
set_rhdx_config(hdx_site = "prod")
get_rhdx_config()
## <HDX Configuration>
##   HDX site: prod
##   HDX site url: https://data.humdata.org/
##   HDX API key:

Now that we are connected to HDX, we can search for dataset using search_datasets, access resources withini the dataset page with the get_resources function and finally read the data directly into the R session using read_resource. magrittr pipes operator are also supported

library(tidyverse)
search_datasets("ACLED Mali", rows = 2) %>% ## search dataset in HDX, limit the results to two rows
  pluck(1) %>% ## select the first dataset
  get_resource(1) %>% ## pick the first resource
  read_resource() ## read this HXLated data into R
## # A tibble: 2,516 x 30
##    data_id   iso event_id_cnty event_id_no_cnty event_date  year
##  *   <dbl> <dbl> <chr>                    <dbl> <date>     <dbl>
##  1 2942561   466 MLI2605                   2605 2019-01-26  2019
##  2 2942562   466 MLI2606                   2606 2019-01-26  2019
##  3 2942557   466 MLI2601                   2601 2019-01-25  2019
##  4 2942558   466 MLI2602                   2602 2019-01-25  2019
##  5 2942559   466 MLI2603                   2603 2019-01-25  2019
##  6 2942560   466 MLI2604                   2604 2019-01-25  2019
##  7 2942555   466 MLI2599                   2599 2019-01-24  2019
##  8 2942556   466 MLI2600                   2600 2019-01-24  2019
##  9 2942553   466 MLI2597                   2597 2019-01-23  2019
## 10 2942554   466 MLI2598                   2598 2019-01-23  2019
## # … with 2,506 more rows, and 24 more variables:
## #   time_precision <dbl>, event_type <chr>, actor1 <chr>,
## #   assoc_actor_1 <chr>, inter1 <dbl>, actor2 <chr>,
## #   assoc_actor_2 <chr>, inter2 <dbl>, interaction <dbl>,
## #   region <chr>, country <chr>, admin1 <chr>, admin2 <chr>,
## #   admin3 <chr>, location <chr>, latitude <dbl>,
## #   longitude <dbl>, geo_precision <dbl>, source <chr>,
## #   source_scale <chr>, notes <chr>, fatalities <dbl>,
## #   timestamp <dbl>, iso3 <chr>

read_resource will not work with resources in HDX, so far the following format are supported: csv, xlsx, xls, json, geojson, zipped shapefile, kmz, zipped geodatabase and zipped geopackage. I will consider adding more data types in the future, feel free to file an issue if it doesn’t work as expected or you want to add a support for a format.

Reading dataset directly

We can also use pull_dataset to directly read and access a dataset object.

pull_dataset("acled-data-for-mali") %>%
  get_resource(1) %>%
  read_resource()
## # A tibble: 3,990 x 31
##    data_id   iso event_id_cnty event_id_no_cnty event_date  year
##      <dbl> <dbl> <chr>                    <dbl> <date>     <dbl>
##  1 7173324   466 MLI4111                   4111 2020-07-31  2020
##  2 7173322   466 MLI4109                   4109 2020-07-29  2020
##  3 7173323   466 MLI4110                   4110 2020-07-29  2020
##  4 7173423   466 MLI4107                   4107 2020-07-28  2020
##  5 7173761   466 MLI4108                   4108 2020-07-28  2020
##  6 7173702   466 MLI4104                   4104 2020-07-27  2020
##  7 7173732   466 MLI4103                   4103 2020-07-27  2020
##  8 7173319   466 MLI4102                   4102 2020-07-27  2020
##  9 7173320   466 MLI4105                   4105 2020-07-27  2020
## 10 7173321   466 MLI4106                   4106 2020-07-27  2020
## # … with 3,980 more rows, and 25 more variables:
## #   time_precision <dbl>, event_type <chr>,
## #   sub_event_type <chr>, actor1 <chr>, assoc_actor_1 <chr>,
## #   inter1 <dbl>, actor2 <chr>, assoc_actor_2 <chr>,
## #   inter2 <dbl>, interaction <dbl>, region <chr>,
## #   country <chr>, admin1 <chr>, admin2 <chr>, admin3 <chr>,
## #   location <chr>, latitude <dbl>, longitude <dbl>,
## #   geo_precision <dbl>, source <chr>, source_scale <chr>,
## #   notes <chr>, fatalities <dbl>, timestamp <dbl>, iso3 <chr>
…
