…
## attr(,"class")
## [1] "datasets_list"
```

We can select a particular dataset from the list of datasets using `R` function to access elements from list (e.g `[[`). In this example, we will use `purrr::pluck` since it plays well with the pipe operator.

```{r, eval = FALSE}
library(tidyverse)
search_datasets("mali", visibility = "public", rows = 2) %>%
  pluck(1) %>%
  list_dataset_resources(format = "stata") %>%
  pluck(1) %>%
  read_resource()
## + # A tibble: 1,690 x 459
##     hhid   q002a    q006    q008  q102  q113    q200    q201
##    <dbl> <dbl+l> <dbl+l> <dbl+l> <dbl> <dbl> <dbl+l> <dbl+l>
##  1 10004 1 [Cam… 1 [Oui] 1 [Pré…     3     0 2 [Dou… 1 [For…
##  2 10008 1 [Cam… 1 [Oui] 1 [Pré…     3     1 2 [Dou… 1 [For…
##  3 10012 1 [Cam… 1 [Oui] 1 [Pré…     7     1 2 [Dou… 1 [For…
##  4 10016 1 [Cam… 1 [Oui] 1 [Pré…     2     1 2 [Dou… 1 [For…
##  5 10020 1 [Cam… 1 [Oui] 1 [Pré…     6     1 2 [Dou… 1 [For…
##  6 10024 1 [Cam… 1 [Oui] 1 [Pré…     3     1 2 [Dou… 1 [For…
##  7 10028 1 [Cam… 1 [Oui] 1 [Pré…     5     1 2 [Dou… 1 [For…
##  8 10032 1 [Cam… 1 [Oui] 1 [Pré…     7     1 2 [Dou… 1 [For…
##  9 10036 1 [Cam… 1 [Oui] 1 [Pré…     4     3 2 [Dou… 1 [For…
## 10 10040 1 [Cam… 1 [Oui] 1 [Pré…     2     1 2 [Dou… 1 [For…
## # … with 1,680 more rows, and 451 more variables:
## #   q202 <dbl+lbl>, q203 <dbl>, q204 <dbl+lbl>, q205 <dbl+lbl>,
## #   q206_1 <dbl+lbl>, q206_2 <dbl+lbl>, q206_3 <dbl+lbl>,
## #   q206_4 <dbl+lbl>, q206_5 <dbl+lbl>, q206_6 <dbl+lbl>,
## #   q207 <dbl+lbl>, q208 <dbl+lbl>, q209 <dbl+lbl>, q210 <dbl>,
## #   q211 <dbl+lbl>, q21201 <dbl+lbl>, q21202 <dbl+lbl>,
## #   q21203 <dbl+lbl>, q213 <dbl+lbl>, q214 <dbl>,
## #   q215 <dbl+lbl>, q216 <dbl>, q217 <dbl+lbl>, q218 <dbl>,
## #   q219 <dbl+lbl>, q220 <dbl+lbl>, q221 <dbl+lbl>,
…
`read_resource` will not work with all resources in RIDL, so far the following format are supported: `csv`, `xlsx`, `xls`, `stata`, `dta`, `json`, `geojson`, `zipped shapefile`, `kmz`, `zipped geodatabase` and `zipped geopackage`.
I will consider adding more data types in the future, feel free to file an issue if it doesn't work as expected or you want to add a support for a format.

### Reading dataset directly

We can also use `pull_dataset` to directly read and access a dataset object.

```{r, eval = FALSE}
dataset_name <- "official-cross-border-figures-of-venezuelan-individuals"
pull_dataset(dataset_name) %>%
  get_dataset_resource(1) %>%
  read_resource()
## + Reading sheet:  VEN_Official Borders Figures
## # A tibble: 1,314 x 5
##    Country `Mov Type`  `Border Point` Month_Year Total_individua…
##    <chr>   <chr>       <chr>          <chr>                 <dbl>
##  1 Ecuador Entry from… Aeropuerto In… January-20                0
##  2 Ecuador Entry from… Aeropuerto In… February-…                1
##  3 Ecuador Entry from… Aeropuerto In… March-20                  0
##  4 Ecuador Entry from… Aeropuerto In… April-20                  0
##  5 Ecuador Entry from… Aeropuerto In… May-20                    0
##  6 Ecuador Entry from… Aeropuerto In… June-20                   2
##  7 Ecuador Entry from… Aeropuerto In… July-20                   2
##  8 Ecuador Entry from… Aeropuerto In… August-20                 2
##  9 Ecuador Entry from… Aeropuerto In… September…               NA
## 10 Ecuador Entry from… Aeropuerto In… January-20                0
# … with 1,304 more rows
```
…
